{
    "prepare_queue": {
        "installed": [],
        "uninstalled": []
    },
    "config_munge": {
        "files": {}
    },
    "installed_plugins": {
        "cordova-plugin-camera": {
            "PACKAGE_NAME": "io.cordova.hellocordova"
        },
        "cordova-plugin-console": {
            "PACKAGE_NAME": "io.cordova.hellocordova"
        },
        "cordova-plugin-device": {
            "PACKAGE_NAME": "io.cordova.hellocordova"
        },
        "cordova-plugin-inappbrowser": {
            "PACKAGE_NAME": "io.cordova.hellocordova"
        },
        "cordova-plugin-statusbar": {
            "PACKAGE_NAME": "io.cordova.hellocordova"
        },
        "cordova-plugin-whitelist": {
            "PACKAGE_NAME": "io.cordova.hellocordova"
        }
    },
    "dependent_plugins": {}
}